Lichess Leaderboards
…
Lichess Leaderboards

Gary Lu

2/28/2022

Finished table

## # A tibble: 40 x 4
## # Groups:   format [4]
##    format name               rating  rank
##    <chr>  <chr>              <chr>  <int>
##  1 Bullet GMRebeccaHarris   3243       1
##  2 Bullet GMC9C9C9C9C9      3155       2
##  3 Bullet GMWatneg          3083       3
##  4 Bullet GMARM-777777      3076       4
##  5 Bullet FMBlazinq         3070       5
##  6 Bullet GMZhigalko_Sergei 3070       6
##  7 Bullet GMBombegranate    3055       7
##  8 Bullet GMSVODMEVKO       3045       8
##  9 Bullet GMchessbrahs      3038       9
## 10 Bullet Caviar2068         3021      10
## # ... with 30 more rows
…
